{
        "resource": {
                "id": 123,
                "fullName": "Rossi Paolo"
        },
        "options": {},
        "year": 2018,
        "month": 2,
        "detailDays": [
                {
                        "day": 1,
                        "start": 9,
                        "end": 19,
                        "worked": null,
                        "pIcap": "",
                        "reperibilita": "test reperibilita",
                        "note": "",
                        "trasferta": "Torino",
                        "cod": "",
                        "codCommessa": "123456"
                },
                {
                        "day": 2,
                        "start": 9,
                        "end": 18,
                        "worked": null,
                        "pIcap": "",
                        "reperibilita": "test reperibilita",
                        "note": "",
                        "trasferta": "Torino",
                        "cod": "",
                        "codCommessa": "123456"
                },
                {
                        "day": 3,
                        "start": 9,
                        "end": 20,
                        "worked": null,
                        "pIcap": "",
                        "reperibilita": "test reperibilita",
                        "note": "",
                        "trasferta": "Torino",
                        "cod": "",
                        "codCommessa": "123456"
                },
                {
                        "day": 4,
                        "worked": 0
                },
                {
                        "day": 5,
                        "start": 9,
                        "end": 18,
                        "worked": null,
                        "pIcap": "",
                        "reperibilita": "test reperibilita",
                        "note": "",
                        "trasferta": "Torino",
                        "cod": "",
                        "codCommessa": "123456"
                },
                {
                        "day": 6,
                        "start": null,
                        "end": null,
                        "worked": null,
                        "pIcap": "",
                        "reperibilita": "test reperibilita",
                        "note": "",
                        "trasferta": "Torino",
                        "cod": "",
                        "codCommessa": "123456"
                },
                {
                        "day": 7,
                        "start": 9,
                        "end": 18,
                        "worked": null,
                        "pIcap": "",
                        "reperibilita": "test reperibilita",
                        "note": "",
                        "trasferta": "Torino",
                        "cod": "",
                        "codCommessa": "123456"
                },
                {
                        "day": 8,
                        "start": 9,
                        "end": 18,
                        "worked": null,
                        "pIcap": "",
                        "reperibilita": "test reperibilita",
                        "note": "",
                        "trasferta": "Torino",
                        "cod": "",
                        "codCommessa": "123456"
                },
                {
                        "day": 9,
                        "worked": 0
                },
                {
                        "day": 10,
                        "worked": 0
                },
                {
                        "day": 11,
                        "start": 9,
                        "end": 18,
                        "worked": null,
                        "pIcap": "",
                        "reperibilita": "test reperibilita",
                        "note": "",
                        "trasferta": "Torino",
                        "cod": "",
                        "codCommessa": "123456"
                },
                {
                        "day": 12,
                        "start": 9,
                        "end": 18,
                        "worked": null,
                        "pIcap": "",
                        "reperibilita": "test reperibilita",
                        "note": "",
                        "trasferta": "Torino",
                        "cod": "",
                        "codCommessa": "123456"
                },
                {
                        "day": 13,
                        "start": 9,
                        "end": 18,
                        "worked": null,
                        "pIcap": "",
                        "reperibilita": "test reperibilita",
                        "note": "",
                        "trasferta": "Torino",
                        "cod": "",
                        "codCommessa": "123456"
                },
                {
                        "day": 14,
                        "start": 9,
                        "end": 18,
                        "worked": null,
                        "pIcap": "",
                        "reperibilita": "test reperibilita",
                        "note": "",
                        "trasferta": "Torino",
                        "cod": "",
                        "codCommessa": "123456"
                },
                {
                        "day": 15,
                        "start": 9,
                        "end": 18,
                        "worked": null,
                        "pIcap": "",
                        "reperibilita": "test reperibilita",
                        "note": "",
                        "trasferta": "Torino",
                        "cod": "",
                        "codCommessa": "123456"
                },
                {
                        "day": 16,
                        "worked": 0
                },
                {
                        "day": 17,
                        "worked": 0
                },
                {
                        "day": 18,
                        "start": 9,
                        "end": 18,
                        "worked": null,
                        "pIcap": "",
                        "reperibilita": "test reperibilita",
                        "note": "",
                        "trasferta": "Torino",
                        "cod": "",
                        "codCommessa": "123456"
                },
                {
                        "day": 19,
                        "start": 9,
                        "end": 18,
                        "worked": null,
                        "pIcap": "",
                        "reperibilita": "test reperibilita",
                        "note": "",
                        "trasferta": "Torino",
                        "cod": "",
                        "codCommessa": "123456"
                },
                {
                        "day": 20,
                        "start": 9,
                        "end": 18,
                        "worked": null,
                        "pIcap": "",
                        "reperibilita": "test reperibilita",
                        "note": "",
                        "trasferta": "Torino",
                        "cod": "",
                        "codCommessa": "123456"
                },
                {
                        "day": 21,
                        "start": 9,
                        "end": 18,
                        "worked": null,
                        "pIcap": "",
                        "reperibilita": "test reperibilita",
                        "note": "",
                        "trasferta": "Torino",
                        "cod": "",
                        "codCommessa": "123456"
                },
                {
                        "day": 22,
                        "start": 9,
                        "end": 18,
                        "worked": null,
                        "pIcap": "",
                        "reperibilita": "test reperibilita",
                        "note": "",
                        "trasferta": "Torino",
                        "cod": "",
                        "codCommessa": "123456"
                },
                {
                        "day": 23,
                        "worked": 0
                },
                {
                        "day": 24,
                        "worked": 0
                },
                {
                        "day": 25,
                        "start": 9,
                        "end": 18,
                        "worked": null,
                        "pIcap": "",
                        "reperibilita": "test reperibilita",
                        "note": "",
                        "trasferta": "Torino",
                        "cod": "",
                        "codCommessa": "123456"
                },
                {
                        "day": 26,
                        "start": 9,
                        "end": 18,
                        "worked": null,
                        "pIcap": "",
                        "reperibilita": "test reperibilita",
                        "note": "",
                        "trasferta": "Torino",
                        "cod": "",
                        "codCommessa": "123456"
                },
                {
                        "day": 27,
                        "start": 9,
                        "end": 18,
                        "worked": null,
                        "pIcap": "",
                        "reperibilita": "test reperibilita",
                        "note": "",
                        "trasferta": "Torino",
                        "cod": "",
                        "codCommessa": "123456"
                },
                {
                        "day": 28,
                        "start": 9,
                        "end": 18,
                        "worked": null,
                        "pIcap": "",
                        "reperibilita": "test reperibilita",
                        "note": "",
                        "trasferta": "Torino",
                        "cod": "",
                        "codCommessa": "123456"
                }
        ]
}